…
One of my favourite data-wrangling tricks is [tidyr::pivot_longer's](https://tidyr.tidyverse.org/reference/pivot_longer.html) 
`names_to` & `.value` sentinel - use-cases don't come up often, but it's so deeply
:sparkles: **satisfying** :sparkles: when it does!

## Scenario

Let's say you have this starting dataframe:

```
# A tibble: 601 × 22
   season title       caught_fred caught_daphnie caught_velma caught_shaggy
   <chr>  <chr>       <chr>       <chr>          <chr>        <chr>        
 1 1      What a Nig… FALSE       FALSE          FALSE        TRUE         
 2 1      A Clue for… FALSE       FALSE          FALSE        TRUE         
 3 1      Hassle in … FALSE       FALSE          FALSE        FALSE        
 4 1      Mine Your … TRUE        FALSE          FALSE        FALSE        
 5 1      Decoy for … FALSE       FALSE          FALSE        FALSE        
 6 1      What the H… TRUE        FALSE          FALSE        FALSE        
 7 1      Never Ape … TRUE        FALSE          FALSE        FALSE        
 8 1      Foul Play … FALSE       FALSE          FALSE        FALSE        
 9 1      The Backst… FALSE       FALSE          FALSE        TRUE         
10 1      Bedlam in … FALSE       FALSE          FALSE        TRUE         
# ℹ 591 more rows
# ℹ 16 more variables: caught_scooby <chr>, captured_fred <chr>,
#   captured_daphnie <chr>, captured_velma <chr>, captured_shaggy <chr>,
#   captured_scooby <chr>, unmask_fred <chr>, unmask_daphnie <chr>,
#   unmask_velma <chr>, unmask_shaggy <chr>, unmask_scooby <chr>,
#   snack_fred <chr>, snack_daphnie <chr>, snack_velma <chr>,
#   snack_shaggy <chr>, snack_scooby <chr>
# ℹ Use `print(n = ...)` to see more rows
```
and you want this ending dataframe:
```
# A tibble: 3,005 × 7
   season title                     character caught captured unmask snack
   <chr>  <chr>                     <chr>     <chr>  <chr>    <chr>  <chr>
 1 1      What a Night for a Knight fred      FALSE  FALSE    FALSE  TRUE 
 2 1      What a Night for a Knight daphnie   FALSE  FALSE    FALSE  FALSE
 3 1      What a Night for a Knight velma     FALSE  FALSE    FALSE  FALSE
 4 1      What a Night for a Knight shaggy    TRUE   FALSE    FALSE  FALSE
 5 1      What a Night for a Knight scooby    TRUE   FALSE    TRUE   FALSE
 6 1      A Clue for Scooby Doo     fred      FALSE  TRUE     TRUE   FALSE
 7 1      A Clue for Scooby Doo     daphnie   FALSE  TRUE     FALSE  FALSE
 8 1      A Clue for Scooby Doo     velma     FALSE  TRUE     FALSE  TRUE 
 9 1      A Clue for Scooby Doo     shaggy    TRUE   FALSE    FALSE  FALSE
10 1      A Clue for Scooby Doo     scooby    FALSE  FALSE    FALSE  FALSE
# ℹ 2,995 more rows
# ℹ Use `print(n = ...)` to see more rows
```

How do you extract the characters (Fred, Velma, Daphnie, Shaggy, Scooby) from the
column names into a `character` column?

## Past me
Hmm, well, I can pivot_longer, then separate the name, then pivot_wider again?

```r
three_lines <- x %>% 
  pivot_longer(cols = -c("season","title")) %>% 
  separate(name,into = c("action","character"), sep = "_") %>% 
  pivot_wider(names_from = "action", values_from = "value")
```
```
# A tibble: 3,005 × 7
   season title                     character caught captured unmask snack
   <chr>  <chr>                     <chr>     <chr>  <chr>    <chr>  <chr>
 1 1      What a Night for a Knight fred      FALSE  FALSE    FALSE  TRUE 
 2 1      What a Night for a Knight daphnie   FALSE  FALSE    FALSE  FALSE
 3 1      What a Night for a Knight velma     FALSE  FALSE    FALSE  FALSE
 4 1      What a Night for a Knight shaggy    TRUE   FALSE    FALSE  FALSE
 5 1      What a Night for a Knight scooby    TRUE   FALSE    TRUE   FALSE
 6 1      A Clue for Scooby Doo     fred      FALSE  TRUE     TRUE   FALSE
 7 1      A Clue for Scooby Doo     daphnie   FALSE  TRUE     FALSE  FALSE
 8 1      A Clue for Scooby Doo     velma     FALSE  TRUE     FALSE  TRUE 
 9 1      A Clue for Scooby Doo     shaggy    TRUE   FALSE    FALSE  FALSE
10 1      A Clue for Scooby Doo     scooby    FALSE  FALSE    FALSE  FALSE
# ℹ 2,995 more rows
# ℹ Use `print(n = ...)` to see more rows
```
…
```r
one_line <- x %>% 
  pivot_longer(
    cols = -c("season","title"), 
    names_to = c(".value","character"), 
    names_sep = "_"
  )
```

```
# A tibble: 3,005 × 7
   season title                     character caught captured unmask snack
   <chr>  <chr>                     <chr>     <chr>  <chr>    <chr>  <chr>
 1 1      What a Night for a Knight fred      FALSE  FALSE    FALSE  TRUE 
 2 1      What a Night for a Knight daphnie   FALSE  FALSE    FALSE  FALSE
 3 1      What a Night for a Knight velma     FALSE  FALSE    FALSE  FALSE
 4 1      What a Night for a Knight shaggy    TRUE   FALSE    FALSE  FALSE
 5 1      What a Night for a Knight scooby    TRUE   FALSE    TRUE   FALSE
 6 1      A Clue for Scooby Doo     fred      FALSE  TRUE     TRUE   FALSE
 7 1      A Clue for Scooby Doo     daphnie   FALSE  TRUE     FALSE  FALSE
 8 1      A Clue for Scooby Doo     velma     FALSE  TRUE     FALSE  TRUE 
 9 1      A Clue for Scooby Doo     shaggy    TRUE   FALSE    FALSE  FALSE
10 1      A Clue for Scooby Doo     scooby    FALSE  FALSE    FALSE  FALSE
# ℹ 2,995 more rows
# ℹ Use `print(n = ...)` to see more rows
```
…
